ETM58D Business Analytics Homework 1
…
df <- read_excel("EVDS_data.xlsx") %>% 
  rename(DATE = Tarih,
         UNEMP_RATE = TP_TIG08,
         USD_TRY = TP_DK_USD_A,
         INT_RATE = TP_KTFTUK,
         USD_RESERVE = TP_AB_C2)
df

## # A tibble: 48 x 5
##    DATE    UNEMP_RATE USD_TRY INT_RATE USD_RESERVE
##    <chr>        <dbl>   <dbl>    <dbl>       <dbl>
##  1 2017-01       12      3.73     15.0       92517
##  2 2017-02       11.9    3.67     15.1       91088
##  3 2017-03       11.9    3.67     14.7       88577
##  4 2017-04       11.6    3.65     15.0       84986
##  5 2017-05       11.1    3.56     15.6       86971
##  6 2017-06       11      3.52     15.8       90196
##  7 2017-07       10.6    3.56     16.1       87466
##  8 2017-08       10.5    3.51     16.4       90412
##  9 2017-09       10.3    3.47     16.9       91503
## 10 2017-10       10.3    3.66     17.0       95480
## #  with 38 more rows

3 Data Manipulation for Visualization

Data are manipulated to longer format for the usage of ggplot2 and visualization purposes. In addition, DATE variable are converted from string to date format via a function of zoo package.

df2 <-
  df %>% 
  pivot_longer(-DATE, names_to = "KEY", values_to = "VALUE") %>% 
  mutate(VALUE = as.numeric(VALUE),
         DATE = as.yearmon(DATE))
df2

## # A tibble: 192 x 3
##    DATE      KEY            VALUE
##    <yearmon> <chr>          <dbl>
##  1 Jan 2017  UNEMP_RATE     12   
##  2 Jan 2017  USD_TRY         3.73
##  3 Jan 2017  INT_RATE       15.0 
##  4 Jan 2017  USD_RESERVE 92517   
##  5 Feb 2017  UNEMP_RATE     11.9 
##  6 Feb 2017  USD_TRY         3.67
##  7 Feb 2017  INT_RATE       15.1 
##  8 Feb 2017  USD_RESERVE 91088   
##  9 Mar 2017  UNEMP_RATE     11.9 
## 10 Mar 2017  USD_TRY         3.67
## #  with 182 more rows
…
